Harvard_Central_Processing_Unit.sim/sim_1/behav/xsim/simulate.log
Vivado Simulator 2018.2
Time resolution is 1 ps
Time: 0 | PC: 00000000 | Instruction: 0000000000000000 | Accumulator:   0
Time: 20000 | PC: 00000000 | Instruction: 0000001000000100 | Accumulator:   0
Time: 25000 | PC: 00000001 | Instruction: 0000010000001010 | Accumulator:   0
Time: 35000 | PC: 00000010 | Instruction: 0100100010001000 | Accumulator:   4
Time: 45000 | PC: 00000011 | Instruction: 0011101010001000 | Accumulator:  10
Time: 55000 | PC: 00000100 | Instruction: 0010101100000000 | Accumulator:   6
Time: 65000 | PC: 00000101 | Instruction: 0010001010000000 | Accumulator:  14
Time: 75000 | PC: 00000110 | Instruction: 0001111101000000 | Accumulator:  14
Time: 85000 | PC: 00000111 | Instruction: 0001110001000000 | Accumulator:   4
Time: 95000 | PC: 00001000 | Instruction: 0000000000000000 | Accumulator:  14
Time: 105000 | PC: 00001001 | Instruction: 0000000000000000 | Accumulator:   4
Time: 115000 | PC: 00001010 | Instruction: 0000000000000000 | Accumulator:   0
Time: 125000 | PC: 00001011 | Instruction: 0000000000000000 | Accumulator:   0
Time: 135000 | PC: 00001100 | Instruction: 0000000000000000 | Accumulator:   0
Time: 145000 | PC: 00001101 | Instruction: 0000000000000000 | Accumulator:   0
Time: 155000 | PC: 00001110 | Instruction: 0000000000000000 | Accumulator:   0
Time: 165000 | PC: 00001111 | Instruction: 0000000000000000 | Accumulator:   0
Final Register Values:
R0 =   0
R1 =   4
R2 =  10
R3 =   0
R4 =   6
R5 =  14
R6 =  10
R7 =   6
stored value in mem[14] =   6
stored value in mem[4] =  10
Passed
$finish called at time : 170 ns : File "C:/Users/admin/Learning/FPGA-projects/Harvard_Central_Processing_Unit/Harvard_Central_Processing_Unit.srcs/sim_1/new/tb_cpu.v" Line 116
